lab5/F0002CH1.csv

Record Length,2.50E+03,-0.05,0,-0.028,,,,,,,,,,,,,,,,,
Sample Interval,4.00E-05,-0.04996,0.04,0.04,,,,,,,,,,,,,,,,,
Trigger Point,1.25E+03,-0.04992,0.08,-0.004,,,,,,,,,,,,,,,,,
,,-0.04988,0.12,0.008,,,,,,,,,,,,,,,,,
,,-0.04984,0.16,0.028,,,,,,,,,,,,,,,,,
,,-0.0498,0.2,0.008,,,,,,,,,,,,,,,,,
Source,CH1,-0.04976,0.24,0.02,,,,,,,,,,,,,,,,,
Vertical Units,V,-0.04972,0.28,0.016,0.002747475,,,,,,,,,,,,,,,,
Vertical Scale,1.00E-01,-0.04968,0.32,-0.036,-0.002262626,,,,,,,,,,,,,,,,
Vertical Offset,0.00E+00,-0.04964,0.36,0,0.000444444,,,,,,,,,,,,,,,,
Horizontal Units,s,-0.0496,0.4,-0.004,-0.005656566,,,,,,,,,,,,,,,,
Horizontal Scale,1.00E-02,-0.04956,0.44,-0.012,-0.000929293,,,,,,,,,,,,,,,,
Pt Fmt,Y,-0.04952,0.48,0.004,-0.003878788,,,,,,,,,,,,,,,,
Yzero,0.00E+00,-0.04948,0.52,-0.036,-0.007313131,,,,,,,,,,,,,,,,
Probe Atten,1.00E+01,-0.04944,0.56,0.032,-0.002505051,,,,,,,,,,,,,,,,
Model Number,TDS2012B,-0.0494,0.6,-0.048,-0.011555556,,,,,,,,,,,,,,,,
Serial Number,C067031,-0.04936,0.64,-0.02,-0.008525253,,,,,,,,,,,,,,,,
Firmware Version,FV:v22.11,-0.04932,0.68,-0.004,-0.008363636,,,,,,,,,,,,,,,,
,,-0.04928,0.72,0.008,-0.009090909,,,,,,,,,,,,,,,,
,,-0.04924,0.76,0.012,-0.003353535,,,,,,,,,,,,,,,,
,,-0.0492,0.8,-0.016,-0.00840404,,,,,,,,,,,,,,,,
,,-0.04916,0.84,0.016,0.00189899,,,,,,,,,,,,,,,,
,,-0.04912,0.88,-0.024,-0.00440404,,,,,,,,,,,,,,,,
,,-0.04908,0.92,-0.032,-0.003878788,,,,,,,,,,,,,,,,
,,-0.04904,0.96,-0.024,-0.00210101,,,,,,,,,,,,,,,,
,,-0.049,1,0.02,-0.004888889,,,,,,,,,,,,,,,,
,,-0.04896,1.04,0.016,-0.004323232,,,,,,,,,,,,,,,,
,,-0.04892,1.08,0.016,-0.011232323,,,,,,,,,,,,,,,,
,,-0.04888,1.12,0.032,-0.009454545,,,,,,,,,,,,,,,,
,,-0.04884,1.16,0.008,-0.010020202,,,,,,,,,,,,,,,,
,,-0.0488,1.2,-0.032,-0.010626263,,,,,,,,,,,,,,,,
,,-0.04876,1.24,-0.032,-0.015555556,,,,,,,,,,,,,,,,
,,-0.04872,1.28,-0.024,-0.008606061,,,,,,,,,,,,,,,,
,,-0.04868,1.32,-0.032,-0.014020202,,,,,,,,,,,,,,,,
,,-0.04864,1.36,-0.04,-0.012848485,,,,,,,,,,,,,,,,
,,-0.0486,1.4,-0.04,-0.012444444,,,,,,,,,,,,,,,,
,,-0.04856,1.44,0.012,-0.018909091,,,,,,,,,,,,,,,,
,,-0.04852,1.48,0.004,-0.017212121,,,,,,,,,,,,,,,,
,,-0.04848,1.52,-0.068,-0.016969697,,,,,,,,,,,,,,,,
,,-0.04844,1.56,0,-0.014707071,,,,,,,,,,,,,,,,
,,-0.0484,1.6,-0.004,-0.014141414,,,,,,,,,,,,,,,,
,,-0.04836,1.64,-0.008,-0.017090909,,,,,,,,,,,,,,,,
,,-0.04832,1.68,0.028,-0.010585859,,,,,,,,,,,,,,,,
,,-0.04828,1.72,-0.04,-0.018545455,,,,,,,,,,,,,,,,
,,-0.04824,1.76,-0.016,-0.008646465,,,,,,,,,,,,,,,,
,,-0.0482,1.8,0.02,-0.01959596,,,,,,,,,,,,,,,,
,,-0.04816,1.84,-0.016,-0.007838384,,,,,,,,,,,,,,,,
,,-0.04812,1.88,-0.016,-0.011717172,,,,,,,,,,,,,,,,
,,-0.04808,1.92,-0.044,-0.012,,,,,,,,,,,,,,,,
,,-0.04804,1.96,-0.004,-0.010505051,,,,,,,,,,,,,,,,
,,-0.048,2,-0.06,-0.013090909,,,,,,,,,,,,,,,,
,,-0.04796,2.04,-0.004,-0.014626263,,,,,,,,,,,,,,,,
,,-0.04792,2.08,-0.008,-0.011393939,,,,,,,,,,,,,,,,
,,-0.04788,2.12,0.028,-0.017575758,,,,,,,,,,,,,,,,
,,-0.04784,2.16,-0.012,-0.014545455,,,,,,,,,,,,,,,,
,,-0.0478,2.2,-0.016,-0.014747475,,,,,,,,,,,,,,,,
,,-0.04776,2.24,-0.008,-0.013171717,,,,,,,,,,,,,,,,
,,-0.04772,2.28,-0.008,-0.014868687,,,,,,,,,,,,,,,,
,,-0.04768,2.32,-0.016,-0.009616162,,,,,,,,,,,,,,,,
,,-0.04764,2.36,-0.036,-0.01369697,,,,,,,,,,,,,,,,
,,-0.0476,2.4,-0.028,-0.008929293,,,,,,,,,,,,,,,,
,,-0.04756,2.44,-0.028,-0.018505051,,,,,,,,,,,,,,,,
,,-0.04752,2.48,0.032,-0.013090909,,,,,,,,,,,,,,,,
,,-0.04748,2.52,-0.032,-0.016888889,,,,,,,,,,,,,,,,
,,-0.04744,2.56,-0.016,-0.017939394,,,,,,,,,,,,,,,,
,,-0.0474,2.6,0.008,-0.018505051,,,,,,,,,,,,,,,,
,,-0.04736,2.64,-0.032,-0.016686869,,,,,,,,,,,,,,,,
,,-0.04732,2.68,-0.004,-0.013373737,,,,,,,,,,,,,,,,
,,-0.04728,2.72,-0.048,-0.017737374,,,,,,,,,,,,,,,,
,,-0.04724,2.76,-0.004,-0.011919192,,,,,,,,,,,,,,,,
,,-0.0472,2.8,-0.012,-0.014868687,,,,,,,,,,,,,,,,
,,-0.04716,2.84,-0.044,-0.019313131,,,,,,,,,,,,,,,,
,,-0.04712,2.88,-0.04,-0.011515152,,,,,,,,,,,,,,,,
,,-0.04708,2.92,0.028,-0.021212121,,,,,,,,,,,,,,,,
,,-0.04704,2.96,0.012,-0.013656566,,,,,,,,,,,,,,,,
,,-0.047,3,-0.036,-0.015919192,,,,,,,,,,,,,,,,
,,-0.04696,3.04,-0.016,-0.013858586,,,,,,,,,,,,,,,,
,,-0.04692,3.08,0,-0.014020202,,,,,,,,,,,,,,,,
,,-0.04688,3.12,-0.036,-0.011555556,,,,,,,,,,,,,,,,
,,-0.04684,3.16,-0.008,-0.013494949,,,,,,,,,,,,,,,,
,,-0.0468,3.2,-0.028,-0.003959596,,,,,,,,,,,,,,,,
,,-0.04676,3.24,-0.02,-0.013535354,,,,,,,,,,,,,,,,
,,-0.04672,3.28,0.024,-0.012323232,,,,,,,,,,,,,,,,
,,-0.04668,3.32,-0.016,-0.01579798,,,,,,,,,,,,,,,,
,,-0.04664,3.36,-0.028,-0.009010101,,,,,,,,,,,,,,,,
,,-0.0466,3.4,0.02,-0.016444444,,,,,,,,,,,,,,,,
,,-0.04656,3.44,-0.012,-0.009454545,,,,,,,,,,,,,,,,
,,-0.04652,3.48,0.024,-0.013090909,,,,,,,,,,,,,,,,
,,-0.04648,3.52,-0.044,-0.011878788,,,,,,,,,,,,,,,,
,,-0.04644,3.56,-0.044,-0.008767677,,,,,,,,,,,,,,,,
,,-0.0464,3.6,-0.02,-0.011070707,,,,,,,,,,,,,,,,
,,-0.04636,3.64,0.004,-0.017333333,,,,,,,,,,,,,,,,
,,-0.04632,3.68,-0.032,-0.012080808,,,,,,,,,,,,,,,,
,,-0.04628,3.72,0.008,-0.017131313,,,,,,,,,,,,,,,,
,,-0.04624,3.76,-0.012,-0.014181818,,,,,,,,,,,,,,,,
,,-0.0462,3.8,-0.024,-0.017858586,,,,,,,,,,,,,,,,
,,-0.04616,3.84,0.016,-0.017171717,,,,,,,,,,,,,,,,
,,-0.04612,3.88,-0.016,-0.013818182,,,,,,,,,,,,,,,,
,,-0.04608,3.92,-0.048,-0.011959596,,,,,,,,,,,,,,,,
,,-0.04604,3.96,-0.036,-0.009171717,,,,,,,,,,,,,,,,
,,-0.046,4,-0.008,-0.010505051,,,,,,,,,,,,,,,,
,,-0.04596,4.04,-0.016,-0.008040404,,,,,,,,,,,,,,,,
,,-0.04592,4.08,0,-0.010787879,,,,,,,,,,,,,,,,
,,-0.04588,4.12,-0.02,-0.005737374,,,,,,,,,,,,,,,,
,,-0.04584,4.16,0.004,-0.010060606,,,,,,,,,,,,,,,,
,,-0.0458,4.2,-0.004,-0.009212121,,,,,,,,,,,,,,,,
,,-0.04576,4.24,0.036,-0.008484848,,,,,,,,,,,,,,,,
,,-0.04572,4.28,0,-0.005656566,,,,,,,,,,,,,,,,
,,-0.04568,4.32,-0.016,-0.006585859,,,,,,,,,,,,,,,,
,,-0.04564,4.36,-0.004,-0.006747475,,,,,,,,,,,,,,,,
,,-0.0456,4.4,0.004,-0.006545455,,,,,,,,,,,,,,,,
,,-0.04556,4.44,-0.024,-0.005575758,,,,,,,,,,,,,,,,
,,-0.04552,4.48,-0.02,-0.006747475,,,,,,,,,,,,,,,,
,,-0.04548,4.52,-0.004,-0.006949495,,,,,,,,,,,,,,,,
,,-0.04544,4.56,-0.024,-0.008080808,,,,,,,,,,,,,,,,
,,-0.0454,4.6,-0.004,-0.009454545,,,,,,,,,,,,,,,,
,,-0.04536,4.64,-0.028,-0.007717172,,,,,,,,,,,,,,,,
,,-0.04532,4.68,0.004,-0.008161616,,,,,,,,,,,,,,,,
,,-0.04528,4.72,0,-0.007838384,,,,,,,,,,,,,,,,
,,-0.04524,4.76,-0.004,-0.012606061,,,,,,,,,,,,,,,,
,,-0.0452,4.8,-0.02,-0.007070707,,,,,,,,,,,,,,,,
,,-0.04516,4.84,0,-0.013858586,,,,,,,,,,,,,,,,
,,-0.04512,4.88,0.004,-0.005494949,,,,,,,,,,,,,,,,
,,-0.04508,4.92,0.004,-0.014989899,,,,,,,,,,,,,,,,
,,-0.04504,4.96,-0.008,-0.00779798,,,,,,,,,,,,,,,,
,,-0.045,5,-0.008,-0.014707071,,,,,,,,,,,,,,,,
,,-0.04496,5.04,-0.04,-0.011434343,,,,,,,,,,,,,,,,
,,-0.04492,5.08,-0.02,-0.016161616,,,,,,,,,,,,,,,,
,,-0.04488,5.12,-0.028,-0.012282828,,,,,,,,,,,,,,,,
,,-0.04484,5.16,0.012,-0.01369697,,,,,,,,,,,,,,,,
,,-0.0448,5.2,-0.036,-0.014181818,,,,,,,,,,,,,,,,
,,-0.04476,5.24,-0.016,-0.013454545,,,,,,,,,,,,,,,,
,,-0.04472,5.28,-0.028,-0.015070707,,,,,,,,,,,,,,,,
,,-0.04468,5.32,-0.016,-0.013575758,,,,,,,,,,,,,,,,
,,-0.04464,5.36,-0.016,-0.010828283,,,,,,,,,,,,,,,,
,,-0.0446,5.4,-0.004,-0.011353535,,,,,,,,,,,,,,,,
,,-0.04456,5.44,0.004,-0.008161616,,,,,,,,,,,,,,,,
,,-0.04452,5.48,-0.02,-0.01010101,,,,,,,,,,,,,,,,
,,-0.04448,5.52,0.016,-0.005494949,,,,,,,,,,,,,,,,
,,-0.04444,5.56,-0.024,-0.006545455,,,,,,,,,,,,,,,,
,,-0.0444,5.6,0.008,-0.006181818,,,,,,,,,,,,,,,,
,,-0.04436,5.64,0.004,-0.003393939,,,,,,,,,,,,,,,,
,,-0.04432,5.68,-0.004,-0.008808081,,,,,,,,,,,,,,,,
,,-0.04428,5.72,-0.02,-0.006343434,,,,,,,,,,,,,,,,
,,-0.04424,5.76,0,-0.010868687,,,,,,,,,,,,,,,,
,,-0.0442,5.8,0.02,-0.006949495,,,,,,,,,,,,,,,,
,,-0.04416,5.84,-0.004,-0.006585859,,,,,,,,,,,,,,,,
,,-0.04412,5.88,-0.024,-0.009333333,,,,,,,,,,,,,,,,
,,-0.04408,5.92,-0.004,-0.003959596,,,,,,,,,,,,,,,,
,,-0.04404,5.96,-0.036,-0.007191919,,,,,,,,,,,,,,,,
,,-0.044,6,-0.048,-0.003474747,,,,,,,,,,,,,,,,
,,-0.04396,6.04,-0.008,-0.006585859,,,,,,,,,,,,,,,,
,,-0.04392,6.08,-0.008,-0.003232323,,,,,,,,,,,,,,,,
,,-0.04388,6.12,0.036,-0.008767677,,,,,,,,,,,,,,,,
,,-0.04384,6.16,-0.016,-0.010424242,,,,,,,,,,,,,,,,
,,-0.0438,6.2,0.016,-0.010060606,,,,,,,,,,,,,,,,
,,-0.04376,6.24,0.016,-0.008161616,,,,,,,,,,,,,,,,
,,-0.04372,6.28,0.02,-0.008929293,,,,,,,,,,,,,,,,
,,-0.04368,6.32,-0.02,-0.006868687,,,,,,,,,,,,,,,,
,,-0.04364,6.36,-0.008,-0.007434343,,,,,,,,,,,,,,,,
,,-0.0436,6.4,-0.036,-0.006343434,,,,,,,,,,,,,,,,
,,-0.04356,6.44,-0.044,-0.013292929,,,,,,,,,,,,,,,,
,,-0.04352,6.48,-0.02,-0.009131313,,,,,,,,,,,,,,,,
,,-0.04348,6.52,-0.004,-0.015030303,,,,,,,,,,,,,,,,
,,-0.04344,6.56,0.016,-0.01430303,,,,,,,,,,,,,,,,
,,-0.0434,6.6,-0.036,-0.019515152,,,,,,,,,,,,,,,,
,,-0.04336,6.64,-0.008,-0.017010101,,,,,,,,,,,,,,,,
,,-0.04332,6.68,-0.016,-0.019434343,,,,,,,,,,,,,,,,
,,-0.04328,6.72,-0.036,-0.017090909,,,,,,,,,,,,,,,,
,,-0.04324,6.76,0,-0.015717172,,,,,,,,,,,,,,,,
,,-0.0432,6.8,-0.02,-0.013737374,,,,,,,,,,,,,,,,
,,-0.04316,6.84,-0.036,-0.012565657,,,,,,,,,,,,,,,,
,,-0.04312,6.88,-0.02,-0.01579798,,,,,,,,,,,,,,,,
,,-0.04308,6.92,-0.004,-0.017292929,,,,,,,,,,,,,,,,
,,-0.04304,6.96,-0.028,-0.007636364,,,,,,,,,,,,,,,,
,,-0.043,7,0.004,-0.014909091,,,,,,,,,,,,,,,,
,,-0.04296,7.04,-0.016,-0.008727273,,,,,,,,,,,,,,,,
,,-0.04292,7.08,0,-0.017575758,,,,,,,,,,,,,,,,
,,-0.04288,7.12,0,-0.011393939,,,,,,,,,,,,,,,,
,,-0.04284,7.16,-0.016,-0.01810101,,,,,,,,,,,,,,,,
,,-0.0428,7.2,-0.04,-0.012646465,,,,,,,,,,,,,,,,
,,-0.04276,7.24,0.048,-0.018868687,,,,,,,,,,,,,,,,
,,-0.04272,7.28,0,-0.016888889,,,,,,,,,,,,,,,,
,,-0.04268,7.32,-0.028,-0.024161616,,,,,,,,,,,,,,,,
,,-0.04264,7.36,-0.068,-0.021333333,,,,,,,,,,,,,,,,
,,-0.0426,7.4,-0.016,-0.024,,,,,,,,,,,,,,,,
,,-0.04256,7.44,-0.036,-0.025616162,,,,,,,,,,,,,,,,
,,-0.04252,7.48,-0.036,-0.028969697,,,,,,,,,,,,,,,,
,,-0.04248,7.52,-0.024,-0.024080808,,,,,,,,,,,,,,,,
,,-0.04244,7.56,-0.04,-0.028929293,,,,,,,,,,,,,,,,
,,-0.0424,7.6,-0.064,-0.028080808,,,,,,,,,,,,,,,,
,,-0.04236,7.64,-0.032,-0.03369697,,,,,,,,,,,,,,,,
,,-0.04232,7.68,0.004,-0.027353535,,,,,,,,,,,,,,,,
,,-0.04228,7.72,-0.048,-0.032888889,,,,,,,,,,,,,,,,
,,-0.04224,7.76,-0.02,-0.031151515,,,,,,,,,,,,,,,,
,,-0.0422,7.8,-0.02,-0.030262626,,,,,,,,,,,,,,,,
,,-0.04216,7.84,-0.016,-0.030949495,,,,,,,,,,,,,,,,
,,-0.04212,7.88,-0.004,-0.028646465,,,,,,,,,,,,,,,,
,,-0.04208,7.92,-0.04,-0.029414141,,,,,,,,,,,,,,,,
,,-0.04204,7.96,-0.036,-0.024929293,,,,,,,,,,,,,,,,
,,-0.042,8,-0.06,-0.030545455,,,,,,,,,,,,,,,,
,,-0.04196,8.04,-0.048,-0.02569697,,,,,,,,,,,,,,,,
,,-0.04192,8.08,-0.02,-0.030181818,,,,,,,,,,,,,,,,
,,-0.04188,8.12,-0.024,-0.030424242,,,,,,,,,,,,,,,,
,,-0.04184,8.16,-0.016,-0.028848485,,,,,,,,,,,,,,,,
,,-0.0418,8.2,-0.02,-0.028727273,,,,,,,,,,,,,,,,
,,-0.04176,8.24,-0.032,-0.029494949,,,,,,,,,,,,,,,,
,,-0.04172,8.28,-0.036,-0.029575758,,,,,,,,,,,,,,,,
,,-0.04168,8.32,0,-0.025737374,,,,,,,,,,,,,,,,
,,-0.04164,8.36,-0.056,-0.026181818,,,,,,,,,,,,,,,,
,,-0.0416,8.4,-0.052,-0.02589899,,,,,,,,,,,,,,,,
,,-0.04156,8.44,-0.016,-0.029333333,,,,,,,,,,,,,,,,
,,-0.04152,8.48,0.008,-0.025575758,,,,,,,,,,,,,,,,
,,-0.04148,8.52,-0.024,-0.029171717,,,,,,,,,,,,,,,,
,,-0.04144,8.56,-0.044,-0.032848485,,,,,,,,,,,,,,,,
,,-0.0414,8.6,-0.004,-0.029494949,,,,,,,,,,,,,,,,
,,-0.04136,8.64,-0.036,-0.03240404,,,,,,,,,,,,,,,,
,,-0.04132,8.68,-0.04,-0.028484848,,,,,,,,,,,,,,,,
,,-0.04128,8.72,-0.06,-0.031757576,,,,,,,,,,,,,,,,
,,-0.04124,8.76,-0.004,-0.027757576,,,,,,,,,,,,,,,,
,,-0.0412,8.8,-0.032,-0.031353535,,,,,,,,,,,,,,,,
,,-0.04116,8.84,-0.072,-0.037858586,,,,,,,,,,,,,,,,
,,-0.04112,8.88,-0.044,-0.032040404,,,,,,,,,,,,,,,,
,,-0.04108,8.92,-0.016,-0.037171717,,,,,,,,,,,,,,,,
,,-0.04104,8.96,0.008,-0.034585859,,,,,,,,,,,,,,,,
,,-0.041,9,-0.056,-0.040686869,,,,,,,,,,,,,,,,
,,-0.04096,9.04,-0.028,-0.034181818,,,,,,,,,,,,,,,,
,,-0.04092,9.08,-0.024,-0.035272727,,,,,,,,,,,,,,,,
,,-0.04088,9.12,-0.072,-0.037010101,,,,,,,,,,,,,,,,
,,-0.04084,9.16,-0.044,-0.033333333,,,,,,,,,,,,,,,,
,,-0.0408,9.2,-0.024,-0.034424242,,,,,,,,,,,,,,,,
,,-0.04076,9.24,-0.036,-0.034828283,,,,,,,,,,,,,,,,
,,-0.04072,9.28,-0.068,-0.034383838,,,,,,,,,,,,,,,,
,,-0.04068,9.32,-0.028,-0.038868687,,,,,,,,,,,,,,,,
,,-0.04064,9.36,-0.016,-0.032525253,,,,,,,,,,,,,,,,
,,-0.0406,9.4,-0.016,-0.037333333,,,,,,,,,,,,,,,,
,,-0.04056,9.44,-0.028,-0.030505051,,,,,,,,,,,,,,,,
,,-0.04052,9.48,-0.04,-0.03620202,,,,,,,,,,,,,,,,
,,-0.04048,9.52,-0.064,-0.030464646,,,,,,,,,,,,,,,,
,,-0.04044,9.56,-0.004,-0.04,,,,,,,,,,,,,,,,
,,-0.0404,9.6,-0.044,-0.034868687,,,,,,,,,,,,,,,,
,,-0.04036,9.64,-0.036,-0.036767677,,,,,,,,,,,,,,,,
,,-0.04032,9.68,-0.016,-0.036565657,,,,,,,,,,,,,,,,
,,-0.04028,9.72,-0.008,-0.038626263,,,,,,,,,,,,,,,,
,,-0.04024,9.76,-0.072,-0.036242424,,,,,,,,,,,,,,,,
,,-0.0402,9.8,-0.032,-0.036606061,,,,,,,,,,,,,,,,
,,-0.04016,9.84,-0.068,-0.035151515,,,,,,,,,,,,,,,,
,,-0.04012,9.88,-0.072,-0.034585859,,,,,,,,,,,,,,,,
,,-0.04008,9.92,-0.032,-0.030585859,,,,,,,,,,,,,,,,
,,-0.04004,9.96,-0.04,-0.035353535,,,,,,,,,,,,,,,,
,,-0.04,10,-0.024,-0.028848485,,,,,,,,,,,,,,,,
,,-0.03996,10.04,-0.016,-0.035717172,,,,,,,,,,,,,,,,
,,-0.03992,10.08,0.004,-0.028040404,,,,,,,,,,,,,,,,
,,-0.03988,10.12,-0.052,-0.030464646,,,,,,,,,,,,,,,,
,,-0.03984,10.16,-0.02,-0.030505051,,,,,,,,,,,,,,,,
,,-0.0398,10.2,0.016,-0.026505051,,,,,,,,,,,,,,,,
,,-0.03976,10.24,-0.048,-0.027959596,,,,,,,,,,,,,,,,
,,-0.03972,10.28,-0.032,-0.026828283,,,,,,,,,,,,,,,,
,,-0.03968,10.32,-0.02,-0.026545455,,,,,,,,,,,,,,,,
,,-0.03964,10.36,-0.012,-0.030141414,,,,,,,,,,,,,,,,
,,-0.0396,10.4,-0.036,-0.030868687,,,,,,,,,,,,,,,,
,,-0.03956,10.44,-0.048,-0.035272727,,,,,,,,,,,,,,,,
,,-0.03952,10.48,-0.048,-0.030989899,,,,,,,,,,,,,,,,
,,-0.03948,10.52,-0.032,-0.038383838,,,,,,,,,,,,,,,,
,,-0.03944,10.56,-0.04,-0.041575758,,,,,,,,,,,,,,,,
,,-0.0394,10.6,-0.016,-0.035919192,,,,,,,,,,,,,,,,
,,-0.03936,10.64,-0.056,-0.044363636,,,,,,,,,,,,,,,,
,,-0.03932,10.68,-0.044,-0.040686869,,,,,,,,,,,,,,,,
,,-0.03928,10.72,-0.044,-0.042141414,,,,,,,,,,,,,,,,
,,-0.03924,10.76,-0.048,-0.04779798,,,,,,,,,,,,,,,,
,,-0.0392,10.8,-0.04,-0.039717172,,,,,,,,,,,,,,,,
,,-0.03916,10.84,-0.084,-0.046868687,,,,,,,,,,,,,,,,
,,-0.03912,10.88,-0.012,-0.039434343,,,,,,,,,,,,,,,,
,,-0.03908,10.92,-0.068,-0.047717172,,,,,,,,,,,,,,,,
,,-0.03904,10.96,-0.04,-0.045656566,,,,,,,,,,,,,,,,
,,-0.039,11,-0.008,-0.041010101,,,,,,,,,,,,,,,,
,,-0.03896,11.04,-0.088,-0.047636364,,,,,,,,,,,,,,,,
,,-0.03892,11.08,-0.032,-0.03810101,,,,,,,,,,,,,,,,
,,-0.03888,11.12,-0.032,-0.04840404,,,,,,,,,,,,,,,,
,,-0.03884,11.16,-0.028,-0.039232323,,,,,,,,,,,,,,,,
,,-0.0388,11.2,-0.06,-0.041535354,,,,,,,,,,,,,,,,
,,-0.03876,11.24,-0.056,-0.047959596,,,,,,,,,,,,,,,,
,,-0.03872,11.28,-0.016,-0.034383838,,,,,,,,,,,,,,,,
,,-0.03868,11.32,-0.048,-0.049373737,,,,,,,,,,,,,,,,
,,-0.03864,11.36,-0.028,-0.037171717,,,,,,,,,,,,,,,,
,,-0.0386,11.4,-0.056,-0.040888889,,,,,,,,,,,,,,,,
,,-0.03856,11.44,-0.048,-0.042141414,,,,,,,,,,,,,,,,
,,-0.03852,11.48,-0.028,-0.040767677,,,,,,,,,,,,,,,,
,,-0.03848,11.52,-0.084,-0.045656566,,,,,,,,,,,,,,,,
,,-0.03844,11.56,-0.008,-0.040929293,,,,,,,,,,,,,,,,
,,-0.0384,11.6,-0.048,-0.045131313,,,,,,,,,,,,,,,,
,,-0.03836,11.64,-0.032,-0.042505051,,,,,,,,,,,,,,,,
,,-0.03832,11.68,-0.02,-0.042343434,,,,,,,,,,,,,,,,
,,-0.03828,11.72,-0.064,-0.042585859,,,,,,,,,,,,,,,,
,,-0.03824,11.76,-0.044,-0.037858586,,,,,,,,,,,,,,,,
,,-0.0382,11.8,-0.052,-0.038707071,,,,,,,,,,,,,,,,
,,-0.03816,11.84,-0.068,-0.031434343,,,,,,,,,,,,,,,,
,,-0.03812,11.88,-0.048,-0.030868687,,,,,,,,,,,,,,,,
,,-0.03808,11.92,-0.02,-0.028323232,,,,,,,,,,,,,,,,
,,-0.03804,11.96,-0.036,-0.025939394,,,,,,,,,,,,,,,,
,,-0.038,12,-0.012,-0.027919192,,,,,,,,,,,,,,,,
,,-0.03796,12.04,-0.032,-0.024040404,,,,,,,,,,,,,,,,
,,-0.03792,12.08,0.004,-0.025979798,,,,,,,,,,,,,,,,
,,-0.03788,12.12,0.012,-0.022222222,,,,,,,,,,,,,,,,
,,-0.03784,12.16,-0.008,-0.023070707,,,,,,,,,,,,,,,,
,,-0.0378,12.2,0.008,-0.017292929,,,,,,,,,,,,,,,,
,,-0.03776,12.24,-0.016,-0.02040404,,,,,,,,,,,,,,,,
,,-0.03772,12.28,-0.036,-0.019434343,,,,,,,,,,,,,,,,
,,-0.03768,12.32,-0.02,-0.020444444,,,,,,,,,,,,,,,,
,,-0.03764,12.36,-0.052,-0.019555556,,,,,,,,,,,,,,,,
,,-0.0376,12.4,-0.036,-0.01620202,,,,,,,,,,,,,,,,
,,-0.03756,12.44,-0.024,-0.019272727,,,,,,,,,,,,,,,,
,,-0.03752,12.48,-0.024,-0.018141414,,,,,,,,,,,,,,,,
,,-0.03748,12.52,-0.016,-0.024282828,,,,,,,,,,,,,,,,
,,-0.03744,12.56,-0.036,-0.026909091,,,,,,,,,,,,,,,,
,,-0.0374,12.6,-0.028,-0.025373737,,,,,,,,,,,,,,,,
,,-0.03736,12.64,-0.008,-0.026181818,,,,,,,,,,,,,,,,
,,-0.03732,12.68,0.016,-0.022949495,,,,,,,,,,,,,,,,
,,-0.03728,12.72,0.004,-0.023515152,,,,,,,,,,,,,,,,
,,-0.03724,12.76,-0.004,-0.021818182,,,,,,,,,,,,,,,,
,,-0.0372,12.8,-0.068,-0.026626263,,,,,,,,,,,,,,,,
,,-0.03716,12.84,-0.068,-0.024040404,,,,,,,,,,,,,,,,
,,-0.03712,12.88,-0.036,-0.026949495,,,,,,,,,,,,,,,,
,,-0.03708,12.92,-0.024,-0.02440404,,,,,,,,,,,,,,,,
,,-0.03704,12.96,0,-0.023676768,,,,,,,,,,,,,,,,
,,-0.037,13,-0.028,-0.024929293,,,,,,,,,,,,,,,,
,,-0.03696,13.04,-0.016,-0.023474747,,,,,,,,,,,,,,,,
,,-0.03692,13.08,-0.06,-0.026989899,,,,,,,,,,,,,,,,
,,-0.03688,13.12,-0.024,-0.022747475,,,,,,,,,,,,,,,,
,,-0.03684,13.16,-0.032,-0.020363636,,,,,,,,,,,,,,,,
,,-0.0368,13.2,-0.02,-0.01769697,,,,,,,,,,,,,,,,
,,-0.03676,13.24,-0.008,-0.014949495,,,,,,,,,,,,,,,,
,,-0.03672,13.28,0,-0.016606061,,,,,,,,,,,,,,,,
,,-0.03668,13.32,0.008,-0.014989899,,,,,,,,,,,,,,,,
,,-0.03664,13.36,-0.02,-0.014909091,,,,,,,,,,,,,,,,
,,-0.0366,13.4,0,-0.014262626,,,,,,,,,,,,,,,,
,,-0.03656,13.44,-0.028,-0.011111111,,,,,,,,,,,,,,,,
,,-0.03652,13.48,-0.008,-0.011393939,,,,,,,,,,,,,,,,
,,-0.03648,13.52,-0.008,-0.009373737,,,,,,,,,,,,,,,,
,,-0.03644,13.56,0,-0.013131313,,,,,,,,,,,,,,,,
,,-0.0364,13.6,-0.024,-0.007434343,,,,,,,,,,,,,,,,
,,-0.03636,13.64,0,-0.016727273,,,,,,,,,,,,,,,,
,,-0.03632,13.68,-0.028,-0.009939394,,,,,,,,,,,,,,,,
,,-0.03628,13.72,-0.016,-0.016686869,,,,,,,,,,,,,,,,
,,-0.03624,13.76,0,-0.010747475,,,,,,,,,,,,,,,,
,,-0.0362,13.8,-0.016,-0.015353535,,,,,,,,,,,,,,,,
,,-0.03616,13.84,-0.032,-0.01159596,,,,,,,,,,,,,,,,
,,-0.03612,13.88,0.012,-0.016161616,,,,,,,,,,,,,,,,
,,-0.03608,13.92,-0.032,-0.015111111,,,,,,,,,,,,,,,,
,,-0.03604,13.96,-0.016,-0.016646465,,,,,,,,,,,,,,,,
,,-0.036,14,-0.016,-0.018060606,,,,,,,,,,,,,,,,
,,-0.03596,14.04,-0.008,-0.018383838,,,,,,,,,,,,,,,,
,,-0.03592,14.08,-0.016,-0.018707071,,,,,,,,,,,,,,,,
,,-0.03588,14.12,-0.012,-0.022181818,,,,,,,,,,,,,,,,
,,-0.03584,14.16,-0.016,-0.016848485,,,,,,,,,,,,,,,,
,,-0.0358,14.2,-0.036,-0.022747475,,,,,,,,,,,,,,,,
,,-0.03576,14.24,-0.02,-0.020808081,,,,,,,,,,,,,,,,
,,-0.03572,14.28,-0.036,-0.021010101,,,,,,,,,,,,,,,,
,,-0.03568,14.32,-0.032,-0.018181818,,,,,,,,,,,,,,,,
,,-0.03564,14.36,-0.028,-0.023070707,,,,,,,,,,,,,,,,
,,-0.0356,14.4,-0.02,-0.021656566,,,,,,,,,,,,,,,,
,,-0.03556,14.44,-0.008,-0.024848485,,,,,,,,,,,,,,,,
,,-0.03552,14.48,-0.024,-0.025292929,,,,,,,,,,,,,,,,
,,-0.03548,14.52,-0.028,-0.023878788,,,,,,,,,,,,,,,,
,,-0.03544,14.56,-0.012,-0.023959596,,,,,,,,,,,,,,,,
,,-0.0354,14.6,0.012,-0.023030303,,,,,,,,,,,,,,,,
,,-0.03536,14.64,-0.044,-0.02569697,,,,,,,,,,,,,,,,
,,-0.03532,14.68,-0.032,-0.022464646,,,,,,,,,,,,,,,,
,,-0.03528,14.72,-0.044,-0.020686869,,,,,,,,,,,,,,,,
,,-0.03524,14.76,-0.036,-0.022262626,,,,,,,,,,,,,,,,
,,-0.0352,14.8,-0.016,-0.021939394,,,,,,,,,,,,,,,,
,,-0.03516,14.84,-0.016,-0.022343434,,,,,,,,,,,,,,,,
,,-0.03512,14.88,-0.016,-0.020565657,,,,,,,,,,,,,,,,
,,-0.03508,14.92,-0.052,-0.027232323,,,,,,,,,,,,,,,,
,,-0.03504,14.96,-0.016,-0.019959596,,,,,,,,,,,,,,,,
,,-0.035,15,0.012,-0.024969697,,,,,,,,,,,,,,,,
,,-0.03496,15.04,-0.008,-0.017414141,,,,,,,,,,,,,,,,
,,-0.03492,15.08,-0.032,-0.021292929,,,,,,,,,,,,,,,,
,,-0.03488,15.12,-0.016,-0.019353535,,,,,,,,,,,,,,,,
,,-0.03484,15.16,-0.028,-0.019272727,,,,,,,,,,,,,,,,
,,-0.0348,15.2,-0.052,-0.018989899,,,,,,,,,,,,,,,,
,,-0.03476,15.24,0.016,-0.01959596,,,,,,,,,,,,,,,,
,,-0.03472,15.28,-0.036,-0.016929293,,,,,,,,,,,,,,,,
,,-0.03468,15.32,0.004,-0.023111111,,,,,,,,,,,,,,,,
,,-0.03464,15.36,-0.028,-0.025616162,,,,,,,,,,,,,,,,
,,-0.0346,15.4,-0.036,-0.030222222,,,,,,,,,,,,,,,,
,,-0.03456,15.44,-0.012,-0.029131313,,,,,,,,,,,,,,,,
